Geography 13
…
## (Question 2 - Step 5)
#Scaling by population (in the Mean Weekly New COVID-19 Cases, Per Capita) relates the number of new cases to the population in each state. This makes the states with smaller populations, like Louisiana, have a Rolling Mean Case line that is larger and more similar to that of other states. It makes the states with smaller populations look 'worse', and the states with larger populations look 'better' or 'less-extreme'. Without scaling per capita, larger states would simply appear to have more cases. This leaves out the fact that they should have more cases, simply because they have more people, not necessarily because the virus spread more easily or quickly there.

Question 3

library(maps)
countycentroids = read_csv("../data/county-centroids.csv")
countycentroids

## # A tibble: 3,220 x 6
##     ...1 fips  name       state_name     LON   LAT
##    <dbl> <chr> <chr>      <chr>        <dbl> <dbl>
##  1     1 39131 Pike       Ohio         -83.1  39.1
##  2     2 46003 Aurora     South Dakota -98.6  43.7
##  3     3 55035 Eau Claire Wisconsin    -91.3  44.7
##  4     4 72145 Vega Baja  Puerto Rico  -66.4  18.4
##  5     5 48259 Kendall    Texas        -98.7  29.9
##  6     6 40015 Caddo      Oklahoma     -98.4  35.2
##  7     7 19093 Ida        Iowa         -95.5  42.4
##  8     8 28071 Lafayette  Mississippi  -89.5  34.4
##  9     9 12027 DeSoto     Florida      -81.8  27.2
## 10    10 31137 Phelps     Nebraska     -99.4  40.5
## # ... with 3,210 more rows
…
